module flota

go 1.20

require github.com/grupawp/warships-gui/v2 v2.1.5

require (
	github.com/JoelOtter/termloop v0.0.0-20210806173944-5f7c38744afb // indirect
	github.com/google/uuid v1.3.0 // indirect
	github.com/grupawp/termloop v0.0.0-20230531144437-277a1cbf4c14 // indirect
	github.com/mattn/go-runewidth v0.0.14 // indirect
	github.com/nsf/termbox-go v1.1.1 // indirect
	github.com/rivo/uniseg v0.4.4 // indirect
)
